﻿{
  "nombre":"Laika",
  "edad":"cachoro",
  "especie":"Perro",
  "tamaño":"Grande",
  "raza":"",
  "sexo":"",
  "vacunado":"",
  "esterelizado":"",
  "peso":"",
  "direccion":"",
  "descripcion":"",
  "fecha":"System.out.println("debu",
  "rutaImagen":"",
  "imagen":"multipart-file(imagen)"
}